…
By default, results are cached in a per-session cache, so if we make the
same request again the local results are used, rather than
re-downloading.

### 1. Tournaments List with Filter

``` r
library(fivbvis) # load package

pl <- list(Fields = "No ShortNameOrName Season DefaultPlayersRanking")
cl <- list(Filter = c(Seasons = "2021"))
vb_tournaments <- v_get_volley_tournament_list(parent = pl, children = cl)
vb_tournaments
#> # A tibble: 46 × 4
#>       no shortNameOrName                                 season defaultPlayersR…
#>    <int> <chr>                                            <int>            <int>
#>  1  1182 Tokyo Olympic Games - Women's Tournament          2021               NA
#>  2  1183 Tokyo Olympic Games - Men's Tournament            2021               NA
#>  3  1216 FIVB VNL WOMEN                                    2021              187
#>  4  1217 FIVB VNL MEN                                      2021              188
#>  5  1225 M FISU 2021                                       2021               NA
#>  6  1226 W FISU 2021                                       2021               NA
#>  7  1227 Volleyball Games - Tokyo Challenge 2021 Women     2021               NA
#>  8  1228 Volleyball Games - Tokyo Challenge 2021 Men       2021               NA
#>  9  1230 FIVB Volleyball Challenger Cup - Men (Cancelle…   2021               NA
#> 10  1231 FIVB Volleyball Challenger Cup - Women (Cancel…   2021               NA
#> # … with 36 more rows
```

### 2. Matches List with Filter

``` r
s_tournament <- vb_tournaments[vb_tournaments$shortNameOrName == "FIVB VNL MEN", ]
pl <- list(Fields = "DateTimeLocal PoolName, TeamAName TeamBName MatchResultText")
cl <- list(Filter = c(NoTournament = s_tournament$no))
v_get_volley_match_list(parent = pl, children = cl)
#> # A tibble: 124 × 4
#>    dateTimeLocal       teamAName   teamBName matchResultText
#>    <dttm>              <chr>       <chr>     <chr>          
#>  1 2021-05-28 10:00:00 France      Bulgaria  3-0            
#>  2 2021-05-28 12:00:00 Germany     Australia 3-0            
#>  3 2021-05-28 13:00:00 Japan       Iran      3-0            
#>  4 2021-05-28 15:00:00 Serbia      Slovenia  3-1            
#>  5 2021-05-28 16:00:00 Netherlands Russia    1-3            
#>  6 2021-05-28 18:00:00 USA         Canada    3-0            
#>  7 2021-05-28 19:30:00 Poland      Italy     3-0            
#>  8 2021-05-28 21:00:00 Brazil      Argentina 3-0            
#>  9 2021-05-29 10:00:00 Germany     France    2-3            
#> 10 2021-05-29 12:00:00 Iran        Russia    1-3            
#> # … with 114 more rows
```
…
### 5. Players List with Filter

``` r
pl <- list(Fields = "Team NoShirt FirstNamePlayer LastNamePlayer Position")
cl <- list(Filter = c(NoTournament = s_tournament$no))
v_get_volley_player_list(parent = pl, children = cl)
#> # A tibble: 271 × 4
#>    noShirt firstNamePlayer lastNamePlayer position
#>      <int> <chr>           <chr>          <chr>   
#>  1       8 Wallace         De Souza       OP      
#>  2       5 Tatsuya         Fukuzawa       OH      
#>  3       6 Mitja           Gasparini      OP      
#>  4       9 Dejan           Vincic         S       
#>  5      17 Tine            Urnaut         OH      
#>  6       2 Alen            Pajenk         MB      
#>  7      12 Grzegorz        Lomacz         S       
#>  8       6 Bartosz         Kurek          OP      
#>  9      13 Michal          Kubiak         OH      
#> 10       8 Marcus          Böhme          MB      
#> # … with 261 more rows
```

### 6. Statistics List with Filter, Relation

``` r
pl <- list(Fields = "BlockPoint BlockFault BlockContinue BlockTotal",
           SumBy = "Tournament")
cl <- list(Filter = c(NoTournaments = s_tournament$no, MatchesToUse="MatchesFinished"),
           Relation = c(Name="Match", Fields="NoInTournament DateLocal TeamACode TeamBCode MatchResult"),
           Relation = c(Name="Team", Fields="Code Name"),
           Relation = c(Name="Player", Fields="TeamName FirstName LastName VolleyPosition"))
v_get_volley_statistic_list(parent = pl, children = cl)
#> # A tibble: 279 × 11
#>    blockPoint blockFault blockContinue blockTotal match team.code team.name
#>         <int>      <int>         <int>      <int> <lgl> <chr>     <chr>    
#>  1         23         67            45        135 NA    <NA>      <NA>     
#>  2          8         27            22         57 NA    <NA>      <NA>     
#>  3          3         14            14         31 NA    <NA>      <NA>     
#>  4          9         14            13         36 NA    <NA>      <NA>     
#>  5          1          1             0          2 NA    <NA>      <NA>     
#>  6         17         19            21         57 NA    <NA>      <NA>     
#>  7         10         17            17         44 NA    <NA>      <NA>     
#>  8         28         34            46        108 NA    <NA>      <NA>     
#>  9         11         29            23         63 NA    <NA>      <NA>     
#> 10         15         21            13         49 NA    <NA>      <NA>     
#> # … with 269 more rows, and 4 more variables: player.teamName <chr>,
#> #   player.firstName <chr>, player.lastName <chr>, player.volleyPosition <chr>
```
…
